Semester 3/DSD/Week08/q3_tb.vcd
$date
	Thu Oct 27 16:50:55 2022
$end
$version
	Icarus Verilog
$end
$timescale
	1ns
$end
$scope module q3_tb $end
$var wire 16 ! y [0:15] $end
$var reg 4 " w [3:0] $end
$scope module uut $end
$var wire 4 # w [3:0] $end
$var wire 16 $ y [0:15] $end
$var wire 4 % k [0:3] $end
$scope module s0 $end
$var wire 1 & e $end
$var wire 2 ' w [1:0] $end
$var reg 4 ( y [0:3] $end
$upscope $end
$scope module s1 $end
$var wire 1 ) e $end
$var wire 2 * w [1:0] $end
$var reg 4 + y [0:3] $end
$upscope $end
$scope module s2 $end
$var wire 1 , e $end
$var wire 2 - w [1:0] $end
$var reg 4 . y [0:3] $end
$upscope $end
$scope module s3 $end
$var wire 1 / e $end
$var wire 2 0 w [1:0] $end
$var reg 4 1 y [0:3] $end
$upscope $end
$scope module s4 $end
$var wire 1 2 e $end
$var wire 2 3 w [1:0] $end
$var reg 4 4 y [0:3] $end
$upscope $end
$upscope $end
$upscope $end
$enddefinitions $end
#0
$dumpvars
b1111 4
b0 3
02
b1111 1
b0 0
0/
b1111 .
b0 -
0,
b111 +
b0 *
1)
b111 (
b0 '
1&
b111 %
b111111111111111 $
b0 #
b0 "
b111111111111111 !
$end
#20
b1011111111111111 !
b1011111111111111 $
b1011 +
b1 *
b1 -
b1 0
b1 3
b1 "
b1 #
#40
b1101111111111111 !
b1101111111111111 $
b1101 +
b10 *
b10 -
b10 0
b10 3
b10 "
b10 #
#60
b1110111111111111 !
b1110111111111111 $
b1110 +
b11 *
b11 -
b11 0
b11 3
b11 "
b11 #
#80
b111 .
1,
0)
b1011 %
b1011 (
b1111011111111111 !
b1111011111111111 $
b1111 +
b1 '
b0 *
b0 -
b0 0
b0 3
b100 "
b100 #
#100
b1111101111111111 !
b1111101111111111 $
b1011 .
b1 *
b1 -
b1 0
b1 3
b101 "
b101 #
#120
b1111110111111111 !
b1111110111111111 $
b1101 .
b10 *
b10 -
b10 0
b10 3
b110 "
b110 #
#140
b1111111011111111 !
b1111111011111111 $
b1110 .
b11 *
b11 -
b11 0
b11 3
b111 "
b111 #
#160
b111 1
1/
0,
b1101 %
b1101 (
b1111111101111111 !
b1111111101111111 $
b1111 .
b10 '
b0 *
b0 -
b0 0
b0 3
b1000 "
b1000 #
#180
b1111111110111111 !
b1111111110111111 $
b1011 1
b1 *
b1 -
b1 0
b1 3
b1001 "
b1001 #
#200
b1111111111011111 !
b1111111111011111 $
b1101 1
b10 *
b10 -
b10 0
b10 3
b1010 "
b1010 #
#220
b1111111111101111 !
b1111111111101111 $
b1110 1
b11 *
b11 -
b11 0
b11 3
b1011 "
b1011 #
#240
b111 4
12
0/
b1110 %
b1110 (
b1111111111110111 !
b1111111111110111 $
b1111 1
b11 '
b0 *
b0 -
b0 0
b0 3
b1100 "
b1100 #
#260
b1111111111111011 !
b1111111111111011 $
b1011 4
b1 *
b1 -
b1 0
b1 3
b1101 "
b1101 #
#280
b1111111111111101 !
b1111111111111101 $
b1101 4
b10 *
b10 -
b10 0
b10 3
b1110 "
b1110 #
#300
b1111111111111110 !
b1111111111111110 $
b1110 4
b11 *
b11 -
b11 0
b11 3
b1111 "
b1111 #
